{
  "name": "ew-demo",
  "dependencies": {},
  "globalDevDependencies": {
    "angular-protractor": "registry:dt/angular-protractor#1.5.0+20160425143459",
    "jasmine": "registry:dt/jasmine#2.2.0+20160505161446",
    "selenium-webdriver": "registry:dt/selenium-webdriver#2.44.0+20160317120654",
    "node": "registry:dt/node"
  }
}